\relax 
\providecommand\HyperFirstAtBeginDocument{\AtBeginDocument}
\HyperFirstAtBeginDocument{\ifx\hyper@anchor\@undefined
\global\let\oldcontentsline\contentsline
\gdef\contentsline#1#2#3#4{\oldcontentsline{#1}{#2}{#3}}
\global\let\oldnewlabel\newlabel
\gdef\newlabel#1#2{\newlabelxx{#1}#2}
\gdef\newlabelxx#1#2#3#4#5#6{\oldnewlabel{#1}{{#2}{#3}}}
\AtEndDocument{\ifx\hyper@anchor\@undefined
\let\contentsline\oldcontentsline
\let\newlabel\oldnewlabel
\fi}
\fi}
\global\let\hyper@last\relax 
\gdef\HyperFirstAtBeginDocument#1{#1}
\providecommand\HyField@AuxAddToFields[1]{}
\providecommand\HyField@AuxAddToCoFields[2]{}
\@writefile{toc}{\contentsline {section}{Ausbildung}{1}{section*.1}}
\@writefile{toc}{\contentsline {section}{Bachelor-Arbeit}{1}{section*.2}}
\@writefile{toc}{\contentsline {section}{Sprachen}{1}{section*.3}}
\@writefile{toc}{\contentsline {section}{IT-Kenntnisse}{1}{section*.4}}
\@writefile{toc}{\contentsline {section}{Pers\IeC {\"o}nliche Interessen}{1}{section*.5}}
\newlabel{lastpage}{{}{1}{}{section*.5}{}}
