\boolfalse {citerequest}\boolfalse {citetracker}\boolfalse {pagetracker}\boolfalse {backtracker}\relax 
\babel@toc {ngerman}{}
\defcounter {refsection}{0}\relax 
\addvspace {10\p@ }
\defcounter {refsection}{0}\relax 
\addvspace {10\p@ }
\defcounter {refsection}{0}\relax 
\contentsline {figure}{\numberline {\relax 0.1}{\ignorespaces Entwicklungsumgebung TeXstudio}}{5}
\defcounter {refsection}{0}\relax 
\addvspace {10\p@ }
\defcounter {refsection}{0}\relax 
\contentsline {figure}{\numberline {\relax 1.1}{\ignorespaces Simple Verfahren bei schlechter Kondition}}{10}
\defcounter {refsection}{0}\relax 
\contentsline {figure}{\numberline {\relax 1.2}{\ignorespaces Quadratische Funktion}}{10}
\defcounter {refsection}{0}\relax 
\addvspace {10\p@ }
\defcounter {refsection}{0}\relax 
\contentsline {figure}{\numberline {\relax 2.1}{\ignorespaces Singulärwertzerlegung}}{14}
\defcounter {refsection}{0}\relax 
\addvspace {10\p@ }
\defcounter {refsection}{0}\relax 
\contentsline {figure}{\numberline {\relax 3.1}{\ignorespaces Struktogramm}}{18}
\defcounter {refsection}{0}\relax 
\contentsline {figure}{\numberline {\relax 3.2}{\ignorespaces Code-Ausschnitt}}{19}
\defcounter {refsection}{0}\relax 
\contentsline {figure}{\numberline {\relax 3.3}{\ignorespaces Sequenzdiagramm}}{19}
\defcounter {refsection}{0}\relax 
\addvspace {10\p@ }
\defcounter {refsection}{0}\relax 
\contentsline {figure}{\numberline {\relax 4.1}{\ignorespaces Bessere Verfahren bei schlechter Kondition}}{21}
\defcounter {refsection}{0}\relax 
\addvspace {10\p@ }
\defcounter {refsection}{0}\relax 
\addvspace {10\p@ }
\defcounter {refsection}{0}\relax 
\contentsline {figure}{\numberline {\relax A.1}{\ignorespaces Restlicher Programm-Code}}{26}
\defcounter {refsection}{0}\relax 
\addvspace {10\p@ }
