\relax 
\providecommand*\new@tpo@label[2]{}
\catcode `"\active 
\abx@aux@refcontext{anyt/global//global/global}
\@writefile{toc}{\boolfalse {citerequest}\boolfalse {citetracker}\boolfalse {pagetracker}\boolfalse {backtracker}\relax }
\@writefile{lof}{\boolfalse {citerequest}\boolfalse {citetracker}\boolfalse {pagetracker}\boolfalse {backtracker}\relax }
\@writefile{lot}{\boolfalse {citerequest}\boolfalse {citetracker}\boolfalse {pagetracker}\boolfalse {backtracker}\relax }
\babel@aux{ngerman}{}
\pgfsyspdfmark {pgfid1}{4033230}{49979481}
\@writefile{toc}{\defcounter {refsection}{0}\relax }\@writefile{toc}{\contentsline {chapter}{\nonumberline Kurzbeschreibung}{3}}
\@writefile{lof}{\defcounter {refsection}{0}\relax }\@writefile{lof}{\addvspace {10\p@ }}
\@writefile{lot}{\defcounter {refsection}{0}\relax }\@writefile{lot}{\addvspace {10\p@ }}
\@writefile{lol}{\defcounter {refsection}{0}\relax }\@writefile{lol}{\addvspace {10\p@ }}
\newlabel{chap:kurzbeschreibung}{{}{3}}
\newlabel{chap:kurzbeschreibung@cref}{{}{[1][3][]3}}
\@writefile{toc}{\defcounter {refsection}{0}\relax }\@writefile{toc}{\contentsline {chapter}{\nonumberline Vorwort}{5}}
\@writefile{lof}{\defcounter {refsection}{0}\relax }\@writefile{lof}{\addvspace {10\p@ }}
\@writefile{lot}{\defcounter {refsection}{0}\relax }\@writefile{lot}{\addvspace {10\p@ }}
\@writefile{lol}{\defcounter {refsection}{0}\relax }\@writefile{lol}{\addvspace {10\p@ }}
\@writefile{lof}{\defcounter {refsection}{0}\relax }\@writefile{lof}{\contentsline {figure}{\numberline {\relax 0.1}{\ignorespaces Entwicklungsumgebung TeXstudio}}{5}}
\newlabel{fig:texstudio}{{\relax 0.1}{5}}
\newlabel{fig:texstudio@cref}{{[figure][1][0]\relax 0.1}{[1][5][]5}}
\abx@aux@cite{num-1}
\abx@aux@segm{0}{0}{num-1}
\@writefile{toc}{\defcounter {refsection}{0}\relax }\@writefile{toc}{\contentsline {chapter}{\numberline {1}Einleitender Teil zur Numerik}{9}}
\@writefile{lof}{\defcounter {refsection}{0}\relax }\@writefile{lof}{\addvspace {10\p@ }}
\@writefile{lot}{\defcounter {refsection}{0}\relax }\@writefile{lot}{\addvspace {10\p@ }}
\@writefile{lol}{\defcounter {refsection}{0}\relax }\@writefile{lol}{\addvspace {10\p@ }}
\newlabel{chap:einleitender-teil}{{1}{9}}
\newlabel{chap:einleitender-teil@cref}{{[chapter][1][]1}{[1][9][]9}}
\@writefile{toc}{\defcounter {refsection}{0}\relax }\@writefile{toc}{\contentsline {section}{\numberline {1.1}Numerisches Lösen von Problemen}{9}}
\newlabel{sec:num-loesen-von-probl}{{1.1}{9}}
\newlabel{sec:num-loesen-von-probl@cref}{{[section][1][1]1.1}{[1][9][]9}}
\@writefile{toc}{\defcounter {refsection}{0}\relax }\@writefile{toc}{\contentsline {section}{\numberline {1.2}Schwierigkeiten beim numerischen Lösen von linearen Gleichungssystemen}{9}}
\newlabel{sec:schwierigkeiten}{{1.2}{9}}
\newlabel{sec:schwierigkeiten@cref}{{[section][2][1]1.2}{[1][9][]9}}
\@writefile{lof}{\defcounter {refsection}{0}\relax }\@writefile{lof}{\contentsline {figure}{\numberline {\relax 1.1}{\ignorespaces Simple Verfahren bei schlechter Kondition}}{10}}
\newlabel{fig:schlechte-kond}{{\relax 1.1}{10}}
\newlabel{fig:schlechte-kond@cref}{{[figure][1][1]\relax 1.1}{[1][9][]10}}
\@writefile{lof}{\defcounter {refsection}{0}\relax }\@writefile{lof}{\contentsline {figure}{\numberline {\relax 1.2}{\ignorespaces Quadratische Funktion}}{10}}
\newlabel{fig:quadratische_funktion}{{\relax 1.2}{10}}
\newlabel{fig:quadratische_funktion@cref}{{[figure][2][1]\relax 1.2}{[1][10][]10}}
\@writefile{toc}{\defcounter {refsection}{0}\relax }\@writefile{toc}{\contentsline {section}{\numberline {1.3}Frage nach Lösungsstrategien für Problematik schlecht konditionierter Matrizen}{11}}
\newlabel{sec:frage-nach-loes}{{1.3}{11}}
\newlabel{sec:frage-nach-loes@cref}{{[section][3][1]1.3}{[1][10][]11}}
\abx@aux@segm{0}{0}{num-1}
\abx@aux@cite{wiki-singulaerwert_zerlegung}
\abx@aux@segm{0}{0}{wiki-singulaerwert_zerlegung}
\@writefile{toc}{\defcounter {refsection}{0}\relax }\@writefile{toc}{\contentsline {chapter}{\numberline {2}Grundlagen zur weiteren Arbeit}{13}}
\@writefile{lof}{\defcounter {refsection}{0}\relax }\@writefile{lof}{\addvspace {10\p@ }}
\@writefile{lot}{\defcounter {refsection}{0}\relax }\@writefile{lot}{\addvspace {10\p@ }}
\@writefile{lol}{\defcounter {refsection}{0}\relax }\@writefile{lol}{\addvspace {10\p@ }}
\newlabel{chap:grundlagen}{{2}{13}}
\newlabel{chap:grundlagen@cref}{{[chapter][2][]2}{[1][13][]13}}
\@writefile{toc}{\defcounter {refsection}{0}\relax }\@writefile{toc}{\contentsline {section}{\numberline {2.1}Pseudo-Inverse}{13}}
\newlabel{sec:pseudo-inv}{{2.1}{13}}
\newlabel{sec:pseudo-inv@cref}{{[section][1][2]2.1}{[1][13][]13}}
\@writefile{toc}{\defcounter {refsection}{0}\relax }\@writefile{toc}{\contentsline {section}{\numberline {2.2}Singulärwerte}{13}}
\newlabel{sec:singulaer-werte}{{2.2}{13}}
\newlabel{sec:singulaer-werte@cref}{{[section][2][2]2.2}{[1][13][]13}}
\@writefile{toc}{\defcounter {refsection}{0}\relax }\@writefile{toc}{\contentsline {subsection}{\numberline {2.2.1}Definition von Singulärwerten}{13}}
\newlabel{subsec:def-singulaer-werte}{{2.2.1}{13}}
\newlabel{subsec:def-singulaer-werte@cref}{{[subsection][1][2,2]2.2.1}{[1][13][]13}}
\@writefile{toc}{\defcounter {refsection}{0}\relax }\@writefile{toc}{\contentsline {subsection}{\numberline {2.2.2}Singulärwertzerlegung}{13}}
\newlabel{subsec:singulaerwert_zerlegung}{{2.2.2}{13}}
\newlabel{subsec:singulaerwert_zerlegung@cref}{{[subsection][2][2,2]2.2.2}{[1][13][]13}}
\newlabel{formula:svd}{{{i}}{13}}
\newlabel{formula:svd@cref}{{[equation][2147483647][]{i}}{[1][13][]13}}
\abx@aux@segm{0}{0}{num-1}
\@writefile{lof}{\defcounter {refsection}{0}\relax }\@writefile{lof}{\contentsline {figure}{\numberline {\relax 2.1}{\ignorespaces Singulärwertzerlegung}}{14}}
\newlabel{fig:singulaer_werte_visual}{{\relax 2.1}{14}}
\newlabel{fig:singulaer_werte_visual@cref}{{[figure][1][2]\relax 2.1}{[1][13][]14}}
\@writefile{toc}{\defcounter {refsection}{0}\relax }\@writefile{toc}{\contentsline {subsection}{\numberline {2.2.3}Lösungsansatz mit Singulärwerten}{14}}
\newlabel{subsec:konditionszahl_allgemein}{{2.2.3}{14}}
\newlabel{subsec:konditionszahl_allgemein@cref}{{[subsection][3][2,2]2.2.3}{[1][14][]14}}
\@writefile{toc}{\defcounter {refsection}{0}\relax }\@writefile{toc}{\contentsline {chapter}{\numberline {3}Vergleich zweier Verfahren}{17}}
\@writefile{lof}{\defcounter {refsection}{0}\relax }\@writefile{lof}{\addvspace {10\p@ }}
\@writefile{lot}{\defcounter {refsection}{0}\relax }\@writefile{lot}{\addvspace {10\p@ }}
\@writefile{lol}{\defcounter {refsection}{0}\relax }\@writefile{lol}{\addvspace {10\p@ }}
\newlabel{chap:vergl-zweier-verf}{{3}{17}}
\newlabel{chap:vergl-zweier-verf@cref}{{[chapter][3][]3}{[1][17][]17}}
\@writefile{toc}{\defcounter {refsection}{0}\relax }\@writefile{toc}{\contentsline {section}{\numberline {3.1}Truncated Singular Value Decomposition}{17}}
\newlabel{sec:tsvd}{{3.1}{17}}
\newlabel{sec:tsvd@cref}{{[section][1][3]3.1}{[1][17][]17}}
\abx@aux@segm{0}{0}{num-1}
\abx@aux@segm{0}{0}{num-1}
\@writefile{lof}{\defcounter {refsection}{0}\relax }\@writefile{lof}{\contentsline {figure}{\numberline {\relax 3.1}{\ignorespaces Struktogramm}}{18}}
\newlabel{fig:struktogramm}{{\relax 3.1}{18}}
\newlabel{fig:struktogramm@cref}{{[figure][1][3]\relax 3.1}{[1][18][]18}}
\@writefile{toc}{\defcounter {refsection}{0}\relax }\@writefile{toc}{\contentsline {section}{\numberline {3.2}Tikhonov-Regularisierung}{18}}
\newlabel{sec:tikhonov}{{3.2}{18}}
\newlabel{sec:tikhonov@cref}{{[section][2][3]3.2}{[1][18][]18}}
\@writefile{toc}{\defcounter {refsection}{0}\relax }\@writefile{toc}{\contentsline {section}{\numberline {3.3}Programm}{19}}
\newlabel{sec:programm}{{3.3}{19}}
\newlabel{sec:programm@cref}{{[section][3][3]3.3}{[1][18][]19}}
\@writefile{lof}{\defcounter {refsection}{0}\relax }\@writefile{lof}{\contentsline {figure}{\numberline {\relax 3.2}{\ignorespaces Code-Ausschnitt}}{19}}
\@writefile{lol}{\defcounter {refsection}{0}\relax }\@writefile{lol}{\contentsline {lstlisting}{../common/app.py}{19}}
\newlabel{fig:code}{{\relax 3.2}{19}}
\newlabel{fig:code@cref}{{[figure][2][3]\relax 3.2}{[1][19][]19}}
\@writefile{lof}{\defcounter {refsection}{0}\relax }\@writefile{lof}{\contentsline {figure}{\numberline {\relax 3.3}{\ignorespaces Sequenzdiagramm}}{19}}
\newlabel{fig:sequencediagram}{{\relax 3.3}{19}}
\newlabel{fig:sequencediagram@cref}{{[figure][3][3]\relax 3.3}{[1][19][]19}}
\@writefile{toc}{\defcounter {refsection}{0}\relax }\@writefile{toc}{\contentsline {chapter}{\numberline {4}Ergebnisse}{21}}
\@writefile{lof}{\defcounter {refsection}{0}\relax }\@writefile{lof}{\addvspace {10\p@ }}
\@writefile{lot}{\defcounter {refsection}{0}\relax }\@writefile{lot}{\addvspace {10\p@ }}
\@writefile{lol}{\defcounter {refsection}{0}\relax }\@writefile{lol}{\addvspace {10\p@ }}
\newlabel{chap:ergebnisse}{{4}{21}}
\newlabel{chap:ergebnisse@cref}{{[chapter][4][]4}{[1][21][]21}}
\@writefile{lof}{\defcounter {refsection}{0}\relax }\@writefile{lof}{\contentsline {figure}{\numberline {\relax 4.1}{\ignorespaces Bessere Verfahren bei schlechter Kondition}}{21}}
\newlabel{fig:schlechte-kond-bessere-verfahren}{{\relax 4.1}{21}}
\newlabel{fig:schlechte-kond-bessere-verfahren@cref}{{[figure][1][4]\relax 4.1}{[1][21][]21}}
\abx@aux@segm{0}{0}{num-1}
\abx@aux@cite{article-ki}
\abx@aux@segm{0}{0}{article-ki}
\@writefile{toc}{\defcounter {refsection}{0}\relax }\@writefile{toc}{\contentsline {chapter}{\numberline {5}Weitere Schritte}{23}}
\@writefile{lof}{\defcounter {refsection}{0}\relax }\@writefile{lof}{\addvspace {10\p@ }}
\@writefile{lot}{\defcounter {refsection}{0}\relax }\@writefile{lot}{\addvspace {10\p@ }}
\@writefile{lol}{\defcounter {refsection}{0}\relax }\@writefile{lol}{\addvspace {10\p@ }}
\newlabel{chap:ausblick}{{5}{23}}
\newlabel{chap:ausblick@cref}{{[chapter][5][]5}{[1][23][]23}}
\@writefile{toc}{\defcounter {refsection}{0}\relax }\@writefile{toc}{\contentsline {chapter}{\numberline {A}Restlicher Programmcode}{25}}
\@writefile{lof}{\defcounter {refsection}{0}\relax }\@writefile{lof}{\addvspace {10\p@ }}
\@writefile{lot}{\defcounter {refsection}{0}\relax }\@writefile{lot}{\addvspace {10\p@ }}
\@writefile{lol}{\defcounter {refsection}{0}\relax }\@writefile{lol}{\addvspace {10\p@ }}
\newlabel{chap:sonstiges}{{A}{25}}
\newlabel{chap:sonstiges@cref}{{[appendix][1][2147483647]A}{[1][25][]25}}
\@writefile{lof}{\defcounter {refsection}{0}\relax }\@writefile{lof}{\contentsline {figure}{\numberline {\relax A.1}{\ignorespaces Restlicher Programm-Code}}{26}}
\@writefile{lol}{\defcounter {refsection}{0}\relax }\@writefile{lol}{\contentsline {lstlisting}{../common/app.py}{26}}
\newlabel{fig:code-rest}{{\relax A.1}{26}}
\newlabel{fig:code-rest@cref}{{[figure][1][2147483647,1]\relax A.1}{[1][25][]26}}
\abx@aux@segm{0}{0}{num-1}
\@writefile{toc}{\defcounter {refsection}{0}\relax }\@writefile{toc}{\contentsline {chapter}{\nonumberline Literatur}{27}}
\@writefile{lof}{\defcounter {refsection}{0}\relax }\@writefile{lof}{\addvspace {10\p@ }}
\@writefile{lot}{\defcounter {refsection}{0}\relax }\@writefile{lot}{\addvspace {10\p@ }}
\@writefile{lol}{\defcounter {refsection}{0}\relax }\@writefile{lol}{\addvspace {10\p@ }}
\newlabel{chap:literatur}{{A}{27}}
\newlabel{chap:literatur@cref}{{[appendix][1][2147483647]A}{[1][27][]27}}
\global\csname @altsecnumformattrue\endcsname
\global\@namedef{scr@dte@chapter@lastmaxnumwidth}{17.74667pt}
\global\@namedef{scr@dte@section@lastmaxnumwidth}{22.97746pt}
\global\@namedef{scr@dte@subsection@lastmaxnumwidth}{32.11626pt}
