\relax 
\providecommand*\new@tpo@label[2]{}
\catcode `"\active 
\abx@aux@refcontext{anyt/global//global/global}
\@writefile{toc}{\boolfalse {citerequest}\boolfalse {citetracker}\boolfalse {pagetracker}\boolfalse {backtracker}\relax }
\@writefile{lof}{\boolfalse {citerequest}\boolfalse {citetracker}\boolfalse {pagetracker}\boolfalse {backtracker}\relax }
\@writefile{lot}{\boolfalse {citerequest}\boolfalse {citetracker}\boolfalse {pagetracker}\boolfalse {backtracker}\relax }
\babel@aux{ngerman}{}
\@writefile{toc}{\defcounter {refsection}{0}\relax }\@writefile{toc}{\contentsline {section}{\numberline {1}Einleitender Teil zur Numerik}{1}}
\newlabel{chap:einleitender-teil}{{1}{1}}
\newlabel{chap:einleitender-teil@cref}{{[section][1][]1}{[1][1][]1}}
\@writefile{toc}{\defcounter {refsection}{0}\relax }\@writefile{toc}{\contentsline {subsection}{\numberline {1.1}Numerisches Lösen von Problemen}{1}}
\newlabel{sec:num-loesen-von-probl}{{1.1}{1}}
\newlabel{sec:num-loesen-von-probl@cref}{{[subsection][1][1]1.1}{[1][1][]1}}
\abx@aux@cite{num-1}
\abx@aux@segm{0}{0}{num-1}
\@writefile{toc}{\defcounter {refsection}{0}\relax }\@writefile{toc}{\contentsline {subsection}{\numberline {1.2}Schwierigkeiten beim numerischen Lösen von linearen Gleichungssystemen}{2}}
\newlabel{sec:schwierigkeiten}{{1.2}{2}}
\newlabel{sec:schwierigkeiten@cref}{{[subsection][2][1]1.2}{[1][2][]2}}
\@writefile{lof}{\defcounter {refsection}{0}\relax }\@writefile{lof}{\contentsline {figure}{\numberline {1}{\ignorespaces Simple Verfahren bei schlechter Kondition}}{2}}
\newlabel{fig:schlechte-kond}{{1}{2}}
\newlabel{fig:schlechte-kond@cref}{{[figure][1][]1}{[1][2][]2}}
\abx@aux@segm{0}{0}{num-1}
\abx@aux@cite{wiki-singulaerwert_zerlegung}
\abx@aux@segm{0}{0}{wiki-singulaerwert_zerlegung}
\@writefile{lof}{\defcounter {refsection}{0}\relax }\@writefile{lof}{\contentsline {figure}{\numberline {2}{\ignorespaces Quadratische Funktion}}{3}}
\newlabel{fig:quadratische_funktion}{{2}{3}}
\newlabel{fig:quadratische_funktion@cref}{{[figure][2][]2}{[1][2][]3}}
\@writefile{toc}{\defcounter {refsection}{0}\relax }\@writefile{toc}{\contentsline {subsection}{\numberline {1.3}Frage nach Lösungsstrategien für Problematik schlecht konditionierter Matrizen}{3}}
\newlabel{sec:frage-nach-loes}{{1.3}{3}}
\newlabel{sec:frage-nach-loes@cref}{{[subsection][3][1]1.3}{[1][2][]3}}
\@writefile{toc}{\defcounter {refsection}{0}\relax }\@writefile{toc}{\contentsline {section}{\numberline {2}Grundlagen zur weiteren Arbeit}{3}}
\newlabel{chap:grundlagen}{{2}{3}}
\newlabel{chap:grundlagen@cref}{{[section][2][]2}{[1][3][]3}}
\@writefile{toc}{\defcounter {refsection}{0}\relax }\@writefile{toc}{\contentsline {subsection}{\numberline {2.1}Pseudo-Inverse}{3}}
\newlabel{sec:pseudo-inv}{{2.1}{3}}
\newlabel{sec:pseudo-inv@cref}{{[subsection][1][2]2.1}{[1][3][]3}}
\@writefile{toc}{\defcounter {refsection}{0}\relax }\@writefile{toc}{\contentsline {subsection}{\numberline {2.2}Singulärwerte}{3}}
\newlabel{sec:singulaer-werte}{{2.2}{3}}
\newlabel{sec:singulaer-werte@cref}{{[subsection][2][2]2.2}{[1][3][]3}}
\@writefile{toc}{\defcounter {refsection}{0}\relax }\@writefile{toc}{\contentsline {subsubsection}{\numberline {2.2.1}Definition von Singulärwerten}{3}}
\newlabel{subsec:def-singulaer-werte}{{2.2.1}{3}}
\newlabel{subsec:def-singulaer-werte@cref}{{[subsubsection][1][2,2]2.2.1}{[1][3][]3}}
\@writefile{toc}{\defcounter {refsection}{0}\relax }\@writefile{toc}{\contentsline {subsubsection}{\numberline {2.2.2}Singulärwertzerlegung}{3}}
\newlabel{subsec:singulaerwert_zerlegung}{{2.2.2}{3}}
\newlabel{subsec:singulaerwert_zerlegung@cref}{{[subsubsection][2][2,2]2.2.2}{[1][3][]3}}
\newlabel{formula:svd}{{{i}}{3}}
\newlabel{formula:svd@cref}{{[equation][2147483647][]{i}}{[1][3][]3}}
\abx@aux@segm{0}{0}{num-1}
\@writefile{lof}{\defcounter {refsection}{0}\relax }\@writefile{lof}{\contentsline {figure}{\numberline {3}{\ignorespaces Singulärwertzerlegung}}{4}}
\newlabel{fig:singulaer_werte_visual}{{3}{4}}
\newlabel{fig:singulaer_werte_visual@cref}{{[figure][3][]3}{[1][3][]4}}
\@writefile{toc}{\defcounter {refsection}{0}\relax }\@writefile{toc}{\contentsline {subsubsection}{\numberline {2.2.3}Lösungsansatz mit Singulärwerten}{4}}
\newlabel{subsec:konditionszahl_allgemein}{{2.2.3}{4}}
\newlabel{subsec:konditionszahl_allgemein@cref}{{[subsubsection][3][2,2]2.2.3}{[1][4][]4}}
\@writefile{toc}{\defcounter {refsection}{0}\relax }\@writefile{toc}{\contentsline {section}{\numberline {3}Vergleich zweier Verfahren}{4}}
\newlabel{chap:vergl-zweier-verf}{{3}{4}}
\newlabel{chap:vergl-zweier-verf@cref}{{[section][3][]3}{[1][4][]4}}
\@writefile{toc}{\defcounter {refsection}{0}\relax }\@writefile{toc}{\contentsline {subsection}{\numberline {3.1}Truncated Singular Value Decomposition}{4}}
\newlabel{sec:tsvd}{{3.1}{4}}
\newlabel{sec:tsvd@cref}{{[subsection][1][3]3.1}{[1][4][]4}}
\abx@aux@segm{0}{0}{num-1}
\abx@aux@segm{0}{0}{num-1}
\@writefile{lof}{\defcounter {refsection}{0}\relax }\@writefile{lof}{\contentsline {figure}{\numberline {4}{\ignorespaces Struktogramm}}{5}}
\newlabel{fig:struktogramm}{{4}{5}}
\newlabel{fig:struktogramm@cref}{{[figure][4][]4}{[1][5][]5}}
\@writefile{toc}{\defcounter {refsection}{0}\relax }\@writefile{toc}{\contentsline {subsection}{\numberline {3.2}Tikhonov-Regularisierung}{5}}
\newlabel{sec:tikhonov}{{3.2}{5}}
\newlabel{sec:tikhonov@cref}{{[subsection][2][3]3.2}{[1][5][]5}}
\@writefile{toc}{\defcounter {refsection}{0}\relax }\@writefile{toc}{\contentsline {subsection}{\numberline {3.3}Programm}{5}}
\newlabel{sec:programm}{{3.3}{5}}
\newlabel{sec:programm@cref}{{[subsection][3][3]3.3}{[1][5][]5}}
\abx@aux@segm{0}{0}{num-1}
\abx@aux@cite{article-ki}
\abx@aux@segm{0}{0}{article-ki}
\abx@aux@segm{0}{0}{num-1}
\@writefile{lof}{\defcounter {refsection}{0}\relax }\@writefile{lof}{\contentsline {figure}{\numberline {5}{\ignorespaces Code-Ausschnitt}}{6}}
\@writefile{lol}{\defcounter {refsection}{0}\relax }\@writefile{lol}{\contentsline {lstlisting}{../common/app.py}{6}}
\newlabel{fig:code}{{5}{6}}
\newlabel{fig:code@cref}{{[figure][5][]5}{[1][5][]6}}
\@writefile{lof}{\defcounter {refsection}{0}\relax }\@writefile{lof}{\contentsline {figure}{\numberline {6}{\ignorespaces Sequenzdiagramm}}{6}}
\newlabel{fig:sequencediagram}{{6}{6}}
\newlabel{fig:sequencediagram@cref}{{[figure][6][]6}{[1][6][]6}}
\@writefile{toc}{\defcounter {refsection}{0}\relax }\@writefile{toc}{\contentsline {section}{\numberline {4}Ergebnisse}{6}}
\newlabel{chap:ergebnisse}{{4}{6}}
\newlabel{chap:ergebnisse@cref}{{[section][4][]4}{[1][6][]6}}
\@writefile{lof}{\defcounter {refsection}{0}\relax }\@writefile{lof}{\contentsline {figure}{\numberline {7}{\ignorespaces Bessere Verfahren bei schlechter Kondition}}{6}}
\newlabel{fig:schlechte-kond-bessere-verfahren}{{7}{6}}
\newlabel{fig:schlechte-kond-bessere-verfahren@cref}{{[figure][7][]7}{[1][6][]6}}
\@writefile{toc}{\defcounter {refsection}{0}\relax }\@writefile{toc}{\contentsline {section}{\numberline {5}Weitere Schritte}{6}}
\newlabel{chap:ausblick}{{5}{6}}
\newlabel{chap:ausblick@cref}{{[section][5][]5}{[1][6][]6}}
\@writefile{toc}{\defcounter {refsection}{0}\relax }\@writefile{toc}{\contentsline {subsection}{\nonumberline Literatur}{7}}
\newlabel{chap:literatur}{{5}{7}}
\newlabel{chap:literatur@cref}{{[section][5][]5}{[1][6][]7}}
\global\@namedef{scr@dte@section@lastmaxnumwidth}{11.87997pt}
\global\@namedef{scr@dte@subsection@lastmaxnumwidth}{19.71361pt}
\global\@namedef{scr@dte@subsubsection@lastmaxnumwidth}{28.8524pt}
